…
###2. Calculate and report the mean and median total number of steps taken per day


```r
dly_avrg_stp <- data %>% group_by(date) %>% summarise(mean = mean(steps), median = median(steps)) 
dly_avrg_stp
```

```
## # A tibble: 61 x 3
##    date         mean median
##    <fct>       <dbl>  <dbl>
##  1 2012-10-01 NA         NA
##  2 2012-10-02  0.438      0
##  3 2012-10-03 39.4        0
##  4 2012-10-04 42.1        0
##  5 2012-10-05 46.2        0
##  6 2012-10-06 53.5        0
##  7 2012-10-07 38.2        0
##  8 2012-10-08 NA         NA
##  9 2012-10-09 44.5        0
## 10 2012-10-10 34.4        0
## # ... with 51 more rows
```
…
```r
new_dly_avrg_stp <- newdata %>% group_by(date) %>% summarise(mean = mean(steps), median = median(steps)) 
new_dly_avrg_stp
```

```
## # A tibble: 61 x 3
##    date         mean median
##    <fct>       <dbl>  <dbl>
##  1 2012-10-01 37.4     34.1
##  2 2012-10-02  0.438    0  
##  3 2012-10-03 39.4      0  
##  4 2012-10-04 42.1      0  
##  5 2012-10-05 46.2      0  
##  6 2012-10-06 53.5      0  
##  7 2012-10-07 38.2      0  
##  8 2012-10-08 37.4     34.1
##  9 2012-10-09 44.5      0  
## 10 2012-10-10 34.4      0  
## # ... with 51 more rows
```

##Are there differences in activity patterns between weekdays and weekends?
###1. Create a new factor variable in the dataset with two levels -- "weekday" and "weekend" indicating whether a given date is a weekday or weekend day.

```r
fac <- factor(weekdays(as.Date(data$date, "%Y-%m-%d")))
levels(fac) <- list("weekend"= c("samedi", "dimanche"), "weekday" = c("lundi", "mardi", "mercredi", "jeudi", "vendredi"))
newdata$fac <- fac
newdata
```

```
## # A tibble: 17,568 x 4
##     steps date       interval fac    
##     <dbl> <fct>         <int> <fct>  
##  1 1.72   2012-10-01        0 weekday
##  2 0.340  2012-10-01        5 weekday
##  3 0.132  2012-10-01       10 weekday
##  4 0.151  2012-10-01       15 weekday
##  5 0.0755 2012-10-01       20 weekday
##  6 2.09   2012-10-01       25 weekday
##  7 0.528  2012-10-01       30 weekday
##  8 0.868  2012-10-01       35 weekday
##  9 0      2012-10-01       40 weekday
## 10 1.47   2012-10-01       45 weekday
## # ... with 17,558 more rows
```

###2. Make a panel plot containing a time series plot (i.e. type = "l") of the 5-minute interval (x-axis) and the average number of steps taken, averaged across all weekday days or weekend days (y-axis).  

```r
ts <- newdata %>% group_by(interval, fac) %>% summarise(average = mean(steps))
ts
```

```
## # A tibble: 576 x 3
## # Groups:   interval [?]
##    interval fac     average
##       <int> <fct>     <dbl>
##  1        0 weekend 0.215  
##  2        0 weekday 2.25   
##  3        5 weekend 0.0425 
##  4        5 weekday 0.445  
##  5       10 weekend 0.0165 
##  6       10 weekday 0.173  
##  7       15 weekend 0.0189 
##  8       15 weekday 0.198  
##  9       20 weekend 0.00943
## 10       20 weekday 0.0990 
## # ... with 566 more rows
```
…
